{"failedCount":0,"prefixedPath":"classpath:Tests\/GETdemo.feature","packageQualifiedName":"Tests.GETdemo","loopIndex":-1,"relativePath":"Tests\/GETdemo.feature","scenarioResults":[{"sectionIndex":0,"stepResults":[{"result":{"nanos":333550842,"startTime":1701130468561,"endTime":1701130468895,"millis":333.550842,"status":"passed"},"step":{"background":true,"line":5,"prefix":"*","index":0,"text":"url 'https:\/\/reqres.in\/api'"}},{"result":{"nanos":2225911,"startTime":1701130468901,"endTime":1701130468903,"millis":2.225911,"status":"passed"},"step":{"background":true,"line":6,"prefix":"*","index":1,"text":"header Accept = 'application\/json'"}},{"result":{"nanos":3308801,"startTime":1701130468904,"endTime":1701130468907,"millis":3.308801,"status":"passed"},"step":{"line":10,"prefix":"Given","index":0,"text":"url 'https:\/\/reqres.in\/api\/users?page=2'"}},{"result":{"nanos":1689285370,"startTime":1701130468909,"endTime":1701130470598,"millis":1689.28537,"status":"passed"},"step":{"line":11,"prefix":"When","index":1,"text":"method GET"},"stepLog":"18:14:29.737 request:\n1 > GET https:\/\/reqres.in\/api\/users?page=2\n1 > Accept: application\/json\n1 > Host: reqres.in\n1 > Connection: Keep-Alive\n1 > User-Agent: Apache-HttpClient\/4.5.12 (Java\/17.0.9)\n1 > Accept-Encoding: gzip,deflate\n\n\n18:14:30.463 response time in milliseconds: 702\n1 < 200\n1 < Date: Tue, 28 Nov 2023 00:14:30 GMT\n1 < Content-Type: application\/json; charset=utf-8\n1 < Transfer-Encoding: chunked\n1 < Connection: keep-alive\n1 < Report-To: {\"group\":\"heroku-nel\",\"max_age\":3600,\"endpoints\":[{\"url\":\"https:\/\/nel.heroku.com\/reports?ts=1701114798&sid=c4c9725f-1ab0-44d8-820f-430df2718e11&s=nc6b%2F%2FzobJHKu4zDCRn5kBGTTETZTG6mDczTDJq4in4%3D\"}]}\n1 < Reporting-Endpoints: heroku-nel=https:\/\/nel.heroku.com\/reports?ts=1701114798&sid=c4c9725f-1ab0-44d8-820f-430df2718e11&s=nc6b%2F%2FzobJHKu4zDCRn5kBGTTETZTG6mDczTDJq4in4%3D\n1 < Nel: {\"report_to\":\"heroku-nel\",\"max_age\":3600,\"success_fraction\":0.005,\"failure_fraction\":0.05,\"response_headers\":[\"Via\"]}\n1 < X-Powered-By: Express\n1 < Access-Control-Allow-Origin: *\n1 < Etag: W\/\"406-ut0vzoCuidvyMf8arZpMpJ6ZRDw\"\n1 < Via: 1.1 vegur\n1 < Cache-Control: max-age=14400\n1 < CF-Cache-Status: HIT\n1 < Age: 850\n1 < Vary: Accept-Encoding\n1 < Server: cloudflare\n1 < CF-RAY: 82ce693fdfcc4791-DFW\n{\"page\":2,\"per_page\":6,\"total\":12,\"total_pages\":2,\"data\":[{\"id\":7,\"email\":\"michael.lawson@reqres.in\",\"first_name\":\"Michael\",\"last_name\":\"Lawson\",\"avatar\":\"https:\/\/reqres.in\/img\/faces\/7-image.jpg\"},{\"id\":8,\"email\":\"lindsay.ferguson@reqres.in\",\"first_name\":\"Lindsay\",\"last_name\":\"Ferguson\",\"avatar\":\"https:\/\/reqres.in\/img\/faces\/8-image.jpg\"},{\"id\":9,\"email\":\"tobias.funke@reqres.in\",\"first_name\":\"Tobias\",\"last_name\":\"Funke\",\"avatar\":\"https:\/\/reqres.in\/img\/faces\/9-image.jpg\"},{\"id\":10,\"email\":\"byron.fields@reqres.in\",\"first_name\":\"Byron\",\"last_name\":\"Fields\",\"avatar\":\"https:\/\/reqres.in\/img\/faces\/10-image.jpg\"},{\"id\":11,\"email\":\"george.edwards@reqres.in\",\"first_name\":\"George\",\"last_name\":\"Edwards\",\"avatar\":\"https:\/\/reqres.in\/img\/faces\/11-image.jpg\"},{\"id\":12,\"email\":\"rachel.howell@reqres.in\",\"first_name\":\"Rachel\",\"last_name\":\"Howell\",\"avatar\":\"https:\/\/reqres.in\/img\/faces\/12-image.jpg\"}],\"support\":{\"url\":\"https:\/\/reqres.in\/#support-heading\",\"text\":\"To keep ReqRes free, contributions towards server costs are appreciated!\"}}\n\n"},{"result":{"nanos":41555,"startTime":1701130470598,"endTime":1701130470598,"millis":0.041555,"status":"passed"},"step":{"line":12,"prefix":"Then","index":2,"text":"status 200"}},{"result":{"nanos":334931464,"startTime":1701130470598,"endTime":1701130470933,"millis":334.931464,"status":"passed"},"step":{"line":13,"prefix":"And","index":3,"text":"print response"},"stepLog":"18:14:30.917 [print] {\n  \"page\": 2,\n  \"per_page\": 6,\n  \"total\": 12,\n  \"total_pages\": 2,\n  \"data\": [\n    {\n      \"id\": 7,\n      \"email\": \"michael.lawson@reqres.in\",\n      \"first_name\": \"Michael\",\n      \"last_name\": \"Lawson\",\n      \"avatar\": \"https:\/\/reqres.in\/img\/faces\/7-image.jpg\"\n    },\n    {\n      \"id\": 8,\n      \"email\": \"lindsay.ferguson@reqres.in\",\n      \"first_name\": \"Lindsay\",\n      \"last_name\": \"Ferguson\",\n      \"avatar\": \"https:\/\/reqres.in\/img\/faces\/8-image.jpg\"\n    },\n    {\n      \"id\": 9,\n      \"email\": \"tobias.funke@reqres.in\",\n      \"first_name\": \"Tobias\",\n      \"last_name\": \"Funke\",\n      \"avatar\": \"https:\/\/reqres.in\/img\/faces\/9-image.jpg\"\n    },\n    {\n      \"id\": 10,\n      \"email\": \"byron.fields@reqres.in\",\n      \"first_name\": \"Byron\",\n      \"last_name\": \"Fields\",\n      \"avatar\": \"https:\/\/reqres.in\/img\/faces\/10-image.jpg\"\n    },\n    {\n      \"id\": 11,\n      \"email\": \"george.edwards@reqres.in\",\n      \"first_name\": \"George\",\n      \"last_name\": \"Edwards\",\n      \"avatar\": \"https:\/\/reqres.in\/img\/faces\/11-image.jpg\"\n    },\n    {\n      \"id\": 12,\n      \"email\": \"rachel.howell@reqres.in\",\n      \"first_name\": \"Rachel\",\n      \"last_name\": \"Howell\",\n      \"avatar\": \"https:\/\/reqres.in\/img\/faces\/12-image.jpg\"\n    }\n  ],\n  \"support\": {\n    \"url\": \"https:\/\/reqres.in\/#support-heading\",\n    \"text\": \"To keep ReqRes free, contributions towards server costs are appreciated!\"\n  }\n}\n \n"},{"result":{"nanos":8125823,"startTime":1701130470942,"endTime":1701130470950,"millis":8.125823,"status":"passed"},"step":{"line":14,"prefix":"And","index":4,"text":"print responseStatus"},"stepLog":"18:14:30.949 [print] 200 \n"},{"result":{"nanos":5803112,"startTime":1701130470951,"endTime":1701130470957,"millis":5.803112,"status":"passed"},"step":{"line":15,"prefix":"And","index":5,"text":"print responseTime"},"stepLog":"18:14:30.956 [print] 702 \n"},{"result":{"nanos":9196490,"startTime":1701130470957,"endTime":1701130470966,"millis":9.19649,"status":"passed"},"step":{"line":16,"prefix":"And","index":6,"text":"print responseHeaders"},"stepLog":"18:14:30.966 [print] {\n  \"Date\": [\n    \"Tue, 28 Nov 2023 00:14:30 GMT\"\n  ],\n  \"Content-Type\": [\n    \"application\/json; charset=utf-8\"\n  ],\n  \"Transfer-Encoding\": [\n    \"chunked\"\n  ],\n  \"Connection\": [\n    \"keep-alive\"\n  ],\n  \"Report-To\": [\n    \"{\\\"group\\\":\\\"heroku-nel\\\",\\\"max_age\\\":3600,\\\"endpoints\\\":[{\\\"url\\\":\\\"https:\/\/nel.heroku.com\/reports?ts=1701114798&sid=c4c9725f-1ab0-44d8-820f-430df2718e11&s=nc6b%2F%2FzobJHKu4zDCRn5kBGTTETZTG6mDczTDJq4in4%3D\\\"}]}\"\n  ],\n  \"Reporting-Endpoints\": [\n    \"heroku-nel=https:\/\/nel.heroku.com\/reports?ts=1701114798&sid=c4c9725f-1ab0-44d8-820f-430df2718e11&s=nc6b%2F%2FzobJHKu4zDCRn5kBGTTETZTG6mDczTDJq4in4%3D\"\n  ],\n  \"Nel\": [\n    \"{\\\"report_to\\\":\\\"heroku-nel\\\",\\\"max_age\\\":3600,\\\"success_fraction\\\":0.005,\\\"failure_fraction\\\":0.05,\\\"response_headers\\\":[\\\"Via\\\"]}\"\n  ],\n  \"X-Powered-By\": [\n    \"Express\"\n  ],\n  \"Access-Control-Allow-Origin\": [\n    \"*\"\n  ],\n  \"Etag\": [\n    \"W\/\\\"406-ut0vzoCuidvyMf8arZpMpJ6ZRDw\\\"\"\n  ],\n  \"Via\": [\n    \"1.1 vegur\"\n  ],\n  \"Cache-Control\": [\n    \"max-age=14400\"\n  ],\n  \"CF-Cache-Status\": [\n    \"HIT\"\n  ],\n  \"Age\": [\n    \"850\"\n  ],\n  \"Vary\": [\n    \"Accept-Encoding\"\n  ],\n  \"Server\": [\n    \"cloudflare\"\n  ],\n  \"CF-RAY\": [\n    \"82ce693fdfcc4791-DFW\"\n  ],\n  \"Set-Cookie\": [\n  ]\n}\n \n"}],"line":9,"description":"","durationMillis":2386.469368,"failed":false,"tags":["getdemo"],"executorName":"main","name":"Test a sample Get API with full URL","startTime":1701130468375,"refId":"[1:9]","endTime":1701130470966,"exampleIndex":-1},{"sectionIndex":1,"stepResults":[{"result":{"nanos":3002267,"startTime":1701130471012,"endTime":1701130471015,"millis":3.002267,"status":"passed"},"step":{"background":true,"line":5,"prefix":"*","index":0,"text":"url 'https:\/\/reqres.in\/api'"}},{"result":{"nanos":1782000,"startTime":1701130471015,"endTime":1701130471017,"millis":1.782,"status":"passed"},"step":{"background":true,"line":6,"prefix":"*","index":1,"text":"header Accept = 'application\/json'"}},{"result":{"nanos":4090045,"startTime":1701130471017,"endTime":1701130471021,"millis":4.090045,"status":"passed"},"step":{"line":20,"prefix":"Given","index":0,"text":"path '\/users?page=2'"}},{"result":{"nanos":322915552,"startTime":1701130471022,"endTime":1701130471345,"millis":322.915552,"status":"passed"},"step":{"line":21,"prefix":"When","index":1,"text":"method GET"},"stepLog":"18:14:31.037 request:\n1 > GET https:\/\/reqres.in\/api\/users%3Fpage=2\n1 > Accept: application\/json\n1 > Host: reqres.in\n1 > Connection: Keep-Alive\n1 > User-Agent: Apache-HttpClient\/4.5.12 (Java\/17.0.9)\n1 > Accept-Encoding: gzip,deflate\n\n\n18:14:31.315 response time in milliseconds: 266\n1 < 200\n1 < Date: Tue, 28 Nov 2023 00:14:31 GMT\n1 < Content-Type: application\/json; charset=utf-8\n1 < Transfer-Encoding: chunked\n1 < Connection: keep-alive\n1 < Report-To: {\"group\":\"heroku-nel\",\"max_age\":3600,\"endpoints\":[{\"url\":\"https:\/\/nel.heroku.com\/reports?ts=1701125410&sid=c4c9725f-1ab0-44d8-820f-430df2718e11&s=xFjL9%2F6QnJawOo6siorafH9Z%2FI%2Fp5xJgNmqErJPtTwI%3D\"}]}\n1 < Reporting-Endpoints: heroku-nel=https:\/\/nel.heroku.com\/reports?ts=1701125410&sid=c4c9725f-1ab0-44d8-820f-430df2718e11&s=xFjL9%2F6QnJawOo6siorafH9Z%2FI%2Fp5xJgNmqErJPtTwI%3D\n1 < Nel: {\"report_to\":\"heroku-nel\",\"max_age\":3600,\"success_fraction\":0.005,\"failure_fraction\":0.05,\"response_headers\":[\"Via\"]}\n1 < X-Powered-By: Express\n1 < Access-Control-Allow-Origin: *\n1 < Etag: W\/\"2c1-N6Rqerxquq2kgQhL51EiSg4x0R8\"\n1 < Via: 1.1 vegur\n1 < Cache-Control: max-age=14400\n1 < CF-Cache-Status: HIT\n1 < Age: 5061\n1 < Vary: Accept-Encoding\n1 < Server: cloudflare\n1 < CF-RAY: 82ce69455bcc316b-DFW\n{\"page\":1,\"per_page\":6,\"total\":12,\"total_pages\":2,\"data\":[{\"id\":1,\"name\":\"cerulean\",\"year\":2000,\"color\":\"#98B2D1\",\"pantone_value\":\"15-4020\"},{\"id\":2,\"name\":\"fuchsia rose\",\"year\":2001,\"color\":\"#C74375\",\"pantone_value\":\"17-2031\"},{\"id\":3,\"name\":\"true red\",\"year\":2002,\"color\":\"#BF1932\",\"pantone_value\":\"19-1664\"},{\"id\":4,\"name\":\"aqua sky\",\"year\":2003,\"color\":\"#7BC4C4\",\"pantone_value\":\"14-4811\"},{\"id\":5,\"name\":\"tigerlily\",\"year\":2004,\"color\":\"#E2583E\",\"pantone_value\":\"17-1456\"},{\"id\":6,\"name\":\"blue turquoise\",\"year\":2005,\"color\":\"#53B0AE\",\"pantone_value\":\"15-5217\"}],\"support\":{\"url\":\"https:\/\/reqres.in\/#support-heading\",\"text\":\"To keep ReqRes free, contributions towards server costs are appreciated!\"}}\n\n"},{"result":{"nanos":18578,"startTime":1701130471345,"endTime":1701130471345,"millis":0.018578,"status":"passed"},"step":{"line":22,"prefix":"Then","index":2,"text":"status 200"}},{"result":{"nanos":1851911,"startTime":1701130471345,"endTime":1701130471347,"millis":1.851911,"status":"passed"},"step":{"line":23,"prefix":"And","index":3,"text":"print response"},"stepLog":"18:14:31.346 [print] {\n  \"page\": 1,\n  \"per_page\": 6,\n  \"total\": 12,\n  \"total_pages\": 2,\n  \"data\": [\n    {\n      \"id\": 1,\n      \"name\": \"cerulean\",\n      \"year\": 2000,\n      \"color\": \"#98B2D1\",\n      \"pantone_value\": \"15-4020\"\n    },\n    {\n      \"id\": 2,\n      \"name\": \"fuchsia rose\",\n      \"year\": 2001,\n      \"color\": \"#C74375\",\n      \"pantone_value\": \"17-2031\"\n    },\n    {\n      \"id\": 3,\n      \"name\": \"true red\",\n      \"year\": 2002,\n      \"color\": \"#BF1932\",\n      \"pantone_value\": \"19-1664\"\n    },\n    {\n      \"id\": 4,\n      \"name\": \"aqua sky\",\n      \"year\": 2003,\n      \"color\": \"#7BC4C4\",\n      \"pantone_value\": \"14-4811\"\n    },\n    {\n      \"id\": 5,\n      \"name\": \"tigerlily\",\n      \"year\": 2004,\n      \"color\": \"#E2583E\",\n      \"pantone_value\": \"17-1456\"\n    },\n    {\n      \"id\": 6,\n      \"name\": \"blue turquoise\",\n      \"year\": 2005,\n      \"color\": \"#53B0AE\",\n      \"pantone_value\": \"15-5217\"\n    }\n  ],\n  \"support\": {\n    \"url\": \"https:\/\/reqres.in\/#support-heading\",\n    \"text\": \"To keep ReqRes free, contributions towards server costs are appreciated!\"\n  }\n}\n \n"}],"line":19,"description":"","durationMillis":333.660353,"failed":false,"tags":["getdemo"],"executorName":"main","name":"Test a sample Get API with a Path","startTime":1701130471011,"refId":"[2:19]","endTime":1701130471347,"exampleIndex":-1},{"sectionIndex":2,"stepResults":[{"result":{"nanos":2190712,"startTime":1701130471385,"endTime":1701130471387,"millis":2.190712,"status":"passed"},"step":{"background":true,"line":5,"prefix":"*","index":0,"text":"url 'https:\/\/reqres.in\/api'"}},{"result":{"nanos":1274534,"startTime":1701130471387,"endTime":1701130471388,"millis":1.274534,"status":"passed"},"step":{"background":true,"line":6,"prefix":"*","index":1,"text":"header Accept = 'application\/json'"}},{"result":{"nanos":1702800,"startTime":1701130471389,"endTime":1701130471391,"millis":1.7028,"status":"passed"},"step":{"line":27,"prefix":"Given","index":0,"text":"path '\/users'"}},{"result":{"nanos":7851067,"startTime":1701130471391,"endTime":1701130471399,"millis":7.851067,"status":"passed"},"step":{"line":28,"prefix":"And","index":1,"text":"param page = 1"}},{"result":{"nanos":247333320,"startTime":1701130471399,"endTime":1701130471646,"millis":247.33332,"status":"passed"},"step":{"line":29,"prefix":"When","index":2,"text":"method GET"},"stepLog":"18:14:31.423 request:\n1 > GET https:\/\/reqres.in\/api\/users?page=1\n1 > Accept: application\/json\n1 > Host: reqres.in\n1 > Connection: Keep-Alive\n1 > User-Agent: Apache-HttpClient\/4.5.12 (Java\/17.0.9)\n1 > Accept-Encoding: gzip,deflate\n\n\n18:14:31.639 response time in milliseconds: 214\n1 < 200\n1 < Date: Tue, 28 Nov 2023 00:14:31 GMT\n1 < Content-Type: application\/json; charset=utf-8\n1 < Transfer-Encoding: chunked\n1 < Connection: keep-alive\n1 < Report-To: {\"group\":\"heroku-nel\",\"max_age\":3600,\"endpoints\":[{\"url\":\"https:\/\/nel.heroku.com\/reports?ts=1700844964&sid=c4c9725f-1ab0-44d8-820f-430df2718e11&s=02nreJfoyoyFKX%2Bgtuap3CUe8lL9%2FRKClOTzlt9tUQ4%3D\"}]}\n1 < Reporting-Endpoints: heroku-nel=https:\/\/nel.heroku.com\/reports?ts=1700844964&sid=c4c9725f-1ab0-44d8-820f-430df2718e11&s=02nreJfoyoyFKX%2Bgtuap3CUe8lL9%2FRKClOTzlt9tUQ4%3D\n1 < Nel: {\"report_to\":\"heroku-nel\",\"max_age\":3600,\"success_fraction\":0.005,\"failure_fraction\":0.05,\"response_headers\":[\"Via\"]}\n1 < X-Powered-By: Express\n1 < Access-Control-Allow-Origin: *\n1 < Etag: W\/\"3e4-2RLXvr5wTg9YQ6aH95CkYoFNuO8\"\n1 < Via: 1.1 vegur\n1 < Cache-Control: max-age=14400\n1 < CF-Cache-Status: HIT\n1 < Age: 6416\n1 < Vary: Accept-Encoding\n1 < Server: cloudflare\n1 < CF-RAY: 82ce69478a172cca-DFW\n{\"page\":1,\"per_page\":6,\"total\":12,\"total_pages\":2,\"data\":[{\"id\":1,\"email\":\"george.bluth@reqres.in\",\"first_name\":\"George\",\"last_name\":\"Bluth\",\"avatar\":\"https:\/\/reqres.in\/img\/faces\/1-image.jpg\"},{\"id\":2,\"email\":\"janet.weaver@reqres.in\",\"first_name\":\"Janet\",\"last_name\":\"Weaver\",\"avatar\":\"https:\/\/reqres.in\/img\/faces\/2-image.jpg\"},{\"id\":3,\"email\":\"emma.wong@reqres.in\",\"first_name\":\"Emma\",\"last_name\":\"Wong\",\"avatar\":\"https:\/\/reqres.in\/img\/faces\/3-image.jpg\"},{\"id\":4,\"email\":\"eve.holt@reqres.in\",\"first_name\":\"Eve\",\"last_name\":\"Holt\",\"avatar\":\"https:\/\/reqres.in\/img\/faces\/4-image.jpg\"},{\"id\":5,\"email\":\"charles.morris@reqres.in\",\"first_name\":\"Charles\",\"last_name\":\"Morris\",\"avatar\":\"https:\/\/reqres.in\/img\/faces\/5-image.jpg\"},{\"id\":6,\"email\":\"tracey.ramos@reqres.in\",\"first_name\":\"Tracey\",\"last_name\":\"Ramos\",\"avatar\":\"https:\/\/reqres.in\/img\/faces\/6-image.jpg\"}],\"support\":{\"url\":\"https:\/\/reqres.in\/#support-heading\",\"text\":\"To keep ReqRes free, contributions towards server costs are appreciated!\"}}\n\n"},{"result":{"nanos":21511,"startTime":1701130471646,"endTime":1701130471646,"millis":0.021511,"status":"passed"},"step":{"line":30,"prefix":"Then","index":3,"text":"status 200"}},{"result":{"nanos":10779512,"startTime":1701130471646,"endTime":1701130471657,"millis":10.779512,"status":"passed"},"step":{"line":31,"prefix":"And","index":4,"text":"print response"},"stepLog":"18:14:31.655 [print] {\n  \"page\": 1,\n  \"per_page\": 6,\n  \"total\": 12,\n  \"total_pages\": 2,\n  \"data\": [\n    {\n      \"id\": 1,\n      \"email\": \"george.bluth@reqres.in\",\n      \"first_name\": \"George\",\n      \"last_name\": \"Bluth\",\n      \"avatar\": \"https:\/\/reqres.in\/img\/faces\/1-image.jpg\"\n    },\n    {\n      \"id\": 2,\n      \"email\": \"janet.weaver@reqres.in\",\n      \"first_name\": \"Janet\",\n      \"last_name\": \"Weaver\",\n      \"avatar\": \"https:\/\/reqres.in\/img\/faces\/2-image.jpg\"\n    },\n    {\n      \"id\": 3,\n      \"email\": \"emma.wong@reqres.in\",\n      \"first_name\": \"Emma\",\n      \"last_name\": \"Wong\",\n      \"avatar\": \"https:\/\/reqres.in\/img\/faces\/3-image.jpg\"\n    },\n    {\n      \"id\": 4,\n      \"email\": \"eve.holt@reqres.in\",\n      \"first_name\": \"Eve\",\n      \"last_name\": \"Holt\",\n      \"avatar\": \"https:\/\/reqres.in\/img\/faces\/4-image.jpg\"\n    },\n    {\n      \"id\": 5,\n      \"email\": \"charles.morris@reqres.in\",\n      \"first_name\": \"Charles\",\n      \"last_name\": \"Morris\",\n      \"avatar\": \"https:\/\/reqres.in\/img\/faces\/5-image.jpg\"\n    },\n    {\n      \"id\": 6,\n      \"email\": \"tracey.ramos@reqres.in\",\n      \"first_name\": \"Tracey\",\n      \"last_name\": \"Ramos\",\n      \"avatar\": \"https:\/\/reqres.in\/img\/faces\/6-image.jpg\"\n    }\n  ],\n  \"support\": {\n    \"url\": \"https:\/\/reqres.in\/#support-heading\",\n    \"text\": \"To keep ReqRes free, contributions towards server costs are appreciated!\"\n  }\n}\n \n"}],"line":26,"description":"","durationMillis":271.153456,"failed":false,"tags":["getdemo"],"executorName":"main","name":"Test a sample Get API with a Path and parameters","startTime":1701130471384,"refId":"[3:26]","endTime":1701130471657,"exampleIndex":-1},{"sectionIndex":3,"stepResults":[{"result":{"nanos":598889,"startTime":1701130471679,"endTime":1701130471680,"millis":0.598889,"status":"passed"},"step":{"background":true,"line":5,"prefix":"*","index":0,"text":"url 'https:\/\/reqres.in\/api'"}},{"result":{"nanos":527022,"startTime":1701130471679,"endTime":1701130471680,"millis":0.527022,"status":"passed"},"step":{"background":true,"line":6,"prefix":"*","index":1,"text":"header Accept = 'application\/json'"}},{"result":{"nanos":313867,"startTime":1701130471680,"endTime":1701130471680,"millis":0.313867,"status":"passed"},"step":{"line":35,"prefix":"Given","index":0,"text":"path '\/users'"}},{"result":{"nanos":1879778,"startTime":1701130471681,"endTime":1701130471683,"millis":1.879778,"status":"passed"},"step":{"line":36,"prefix":"And","index":1,"text":"param page = 2"}},{"result":{"nanos":262872656,"startTime":1701130471683,"endTime":1701130471946,"millis":262.872656,"status":"passed"},"step":{"line":37,"prefix":"When","index":2,"text":"method GET"},"stepLog":"18:14:31.705 request:\n1 > GET https:\/\/reqres.in\/api\/users?page=2\n1 > Accept: application\/json\n1 > Host: reqres.in\n1 > Connection: Keep-Alive\n1 > User-Agent: Apache-HttpClient\/4.5.12 (Java\/17.0.9)\n1 > Accept-Encoding: gzip,deflate\n\n\n18:14:31.934 response time in milliseconds: 218\n1 < 200\n1 < Date: Tue, 28 Nov 2023 00:14:31 GMT\n1 < Content-Type: application\/json; charset=utf-8\n1 < Transfer-Encoding: chunked\n1 < Connection: keep-alive\n1 < Report-To: {\"group\":\"heroku-nel\",\"max_age\":3600,\"endpoints\":[{\"url\":\"https:\/\/nel.heroku.com\/reports?ts=1701108498&sid=c4c9725f-1ab0-44d8-820f-430df2718e11&s=7gA0B1S3M%2F%2FINpS%2Bmacy3NHkMW0JifxVc2JZ1nPGM6g%3D\"}]}\n1 < Reporting-Endpoints: heroku-nel=https:\/\/nel.heroku.com\/reports?ts=1701108498&sid=c4c9725f-1ab0-44d8-820f-430df2718e11&s=7gA0B1S3M%2F%2FINpS%2Bmacy3NHkMW0JifxVc2JZ1nPGM6g%3D\n1 < Nel: {\"report_to\":\"heroku-nel\",\"max_age\":3600,\"success_fraction\":0.005,\"failure_fraction\":0.05,\"response_headers\":[\"Via\"]}\n1 < X-Powered-By: Express\n1 < Access-Control-Allow-Origin: *\n1 < Etag: W\/\"406-ut0vzoCuidvyMf8arZpMpJ6ZRDw\"\n1 < Via: 1.1 vegur\n1 < Cache-Control: max-age=14400\n1 < CF-Cache-Status: HIT\n1 < Age: 5720\n1 < Vary: Accept-Encoding\n1 < Server: cloudflare\n1 < CF-RAY: 82ce69496f4b2c8d-DFW\n{\"page\":2,\"per_page\":6,\"total\":12,\"total_pages\":2,\"data\":[{\"id\":7,\"email\":\"michael.lawson@reqres.in\",\"first_name\":\"Michael\",\"last_name\":\"Lawson\",\"avatar\":\"https:\/\/reqres.in\/img\/faces\/7-image.jpg\"},{\"id\":8,\"email\":\"lindsay.ferguson@reqres.in\",\"first_name\":\"Lindsay\",\"last_name\":\"Ferguson\",\"avatar\":\"https:\/\/reqres.in\/img\/faces\/8-image.jpg\"},{\"id\":9,\"email\":\"tobias.funke@reqres.in\",\"first_name\":\"Tobias\",\"last_name\":\"Funke\",\"avatar\":\"https:\/\/reqres.in\/img\/faces\/9-image.jpg\"},{\"id\":10,\"email\":\"byron.fields@reqres.in\",\"first_name\":\"Byron\",\"last_name\":\"Fields\",\"avatar\":\"https:\/\/reqres.in\/img\/faces\/10-image.jpg\"},{\"id\":11,\"email\":\"george.edwards@reqres.in\",\"first_name\":\"George\",\"last_name\":\"Edwards\",\"avatar\":\"https:\/\/reqres.in\/img\/faces\/11-image.jpg\"},{\"id\":12,\"email\":\"rachel.howell@reqres.in\",\"first_name\":\"Rachel\",\"last_name\":\"Howell\",\"avatar\":\"https:\/\/reqres.in\/img\/faces\/12-image.jpg\"}],\"support\":{\"url\":\"https:\/\/reqres.in\/#support-heading\",\"text\":\"To keep ReqRes free, contributions towards server costs are appreciated!\"}}\n\n"},{"result":{"nanos":22978,"startTime":1701130471946,"endTime":1701130471946,"millis":0.022978,"status":"passed"},"step":{"line":38,"prefix":"Then","index":3,"text":"status 200"}},{"result":{"nanos":3151378,"startTime":1701130471946,"endTime":1701130471949,"millis":3.151378,"status":"passed"},"step":{"line":39,"prefix":"And","index":4,"text":"print response"},"stepLog":"18:14:31.949 [print] {\n  \"page\": 2,\n  \"per_page\": 6,\n  \"total\": 12,\n  \"total_pages\": 2,\n  \"data\": [\n    {\n      \"id\": 7,\n      \"email\": \"michael.lawson@reqres.in\",\n      \"first_name\": \"Michael\",\n      \"last_name\": \"Lawson\",\n      \"avatar\": \"https:\/\/reqres.in\/img\/faces\/7-image.jpg\"\n    },\n    {\n      \"id\": 8,\n      \"email\": \"lindsay.ferguson@reqres.in\",\n      \"first_name\": \"Lindsay\",\n      \"last_name\": \"Ferguson\",\n      \"avatar\": \"https:\/\/reqres.in\/img\/faces\/8-image.jpg\"\n    },\n    {\n      \"id\": 9,\n      \"email\": \"tobias.funke@reqres.in\",\n      \"first_name\": \"Tobias\",\n      \"last_name\": \"Funke\",\n      \"avatar\": \"https:\/\/reqres.in\/img\/faces\/9-image.jpg\"\n    },\n    {\n      \"id\": 10,\n      \"email\": \"byron.fields@reqres.in\",\n      \"first_name\": \"Byron\",\n      \"last_name\": \"Fields\",\n      \"avatar\": \"https:\/\/reqres.in\/img\/faces\/10-image.jpg\"\n    },\n    {\n      \"id\": 11,\n      \"email\": \"george.edwards@reqres.in\",\n      \"first_name\": \"George\",\n      \"last_name\": \"Edwards\",\n      \"avatar\": \"https:\/\/reqres.in\/img\/faces\/11-image.jpg\"\n    },\n    {\n      \"id\": 12,\n      \"email\": \"rachel.howell@reqres.in\",\n      \"first_name\": \"Rachel\",\n      \"last_name\": \"Howell\",\n      \"avatar\": \"https:\/\/reqres.in\/img\/faces\/12-image.jpg\"\n    }\n  ],\n  \"support\": {\n    \"url\": \"https:\/\/reqres.in\/#support-heading\",\n    \"text\": \"To keep ReqRes free, contributions towards server costs are appreciated!\"\n  }\n}\n \n"},{"result":{"nanos":153344908,"startTime":1701130471949,"endTime":1701130472102,"millis":153.344908,"status":"passed"},"step":{"line":40,"prefix":"And","index":5,"text":"match response.data[0].first_name != null"}},{"result":{"nanos":22115869,"startTime":1701130472103,"endTime":1701130472125,"millis":22.115869,"status":"passed"},"step":{"line":41,"prefix":"And","index":6,"text":"assert response.data.length == 6"}},{"result":{"nanos":4211778,"startTime":1701130472125,"endTime":1701130472129,"millis":4.211778,"status":"passed"},"step":{"line":42,"prefix":"And","index":7,"text":"match $.data[1].id == 8"}},{"result":{"nanos":4048001,"startTime":1701130472131,"endTime":1701130472135,"millis":4.048001,"status":"passed"},"step":{"line":43,"prefix":"And","index":8,"text":"match $.data[3].last_name == 'Fields'"}}],"line":34,"description":"","durationMillis":453.087124,"failed":false,"tags":["getdemo"],"executorName":"main","name":"Test a sample Get API with assertions","startTime":1701130471678,"refId":"[4:34]","endTime":1701130472135,"exampleIndex":-1}],"callDepth":0,"name":"Sample api Test","description":"","resultDate":"2023-11-27 06:14:32 p. m.","durationMillis":3444.370301,"passedCount":4}