{"failedCount":0,"prefixedPath":"src\/test\/java\/Tests\/GETdemo.feature","packageQualifiedName":"src.test.java.Tests.GETdemo","loopIndex":-1,"relativePath":"src\/test\/java\/Tests\/GETdemo.feature","scenarioResults":[{"sectionIndex":5,"stepResults":[{"result":{"nanos":6546223,"startTime":1701275401901,"endTime":1701275401908,"millis":6.546223,"status":"passed"},"step":{"background":true,"line":5,"prefix":"*","index":0,"text":"url 'https:\/\/reqres.in\/api'"}},{"result":{"nanos":2453245,"startTime":1701275401914,"endTime":1701275401916,"millis":2.453245,"status":"passed"},"step":{"background":true,"line":6,"prefix":"*","index":1,"text":"header Accept = 'application\/json'"}},{"result":{"nanos":1677867,"startTime":1701275401917,"endTime":1701275401919,"millis":1.677867,"status":"passed"},"step":{"line":54,"prefix":"Given","index":0,"text":"path '\/unknown'"}},{"result":{"nanos":1899319886,"startTime":1701275401920,"endTime":1701275403819,"millis":1899.319886,"status":"passed"},"step":{"line":55,"prefix":"When","index":1,"text":"method GET"},"stepLog":"10:30:02.710 request:\n1 > GET https:\/\/reqres.in\/api\/unknown\n1 > Accept: application\/json\n1 > Host: reqres.in\n1 > Connection: Keep-Alive\n1 > User-Agent: Apache-HttpClient\/4.5.12 (Java\/17.0.9)\n1 > Accept-Encoding: gzip,deflate\n\n\n10:30:03.704 response time in milliseconds: 972\n1 < 200\n1 < Date: Wed, 29 Nov 2023 16:30:03 GMT\n1 < Content-Type: application\/json; charset=utf-8\n1 < Transfer-Encoding: chunked\n1 < Connection: keep-alive\n1 < Report-To: {\"group\":\"heroku-nel\",\"max_age\":3600,\"endpoints\":[{\"url\":\"https:\/\/nel.heroku.com\/reports?ts=1700951769&sid=c4c9725f-1ab0-44d8-820f-430df2718e11&s=TWe%2BprMzCNH%2Fwm49k9taPfTx%2BkUCdeHn5HTEwbnCvA4%3D\"}]}\n1 < Reporting-Endpoints: heroku-nel=https:\/\/nel.heroku.com\/reports?ts=1700951769&sid=c4c9725f-1ab0-44d8-820f-430df2718e11&s=TWe%2BprMzCNH%2Fwm49k9taPfTx%2BkUCdeHn5HTEwbnCvA4%3D\n1 < Nel: {\"report_to\":\"heroku-nel\",\"max_age\":3600,\"success_fraction\":0.005,\"failure_fraction\":0.05,\"response_headers\":[\"Via\"]}\n1 < X-Powered-By: Express\n1 < Access-Control-Allow-Origin: *\n1 < Etag: W\/\"2c1-N6Rqerxquq2kgQhL51EiSg4x0R8\"\n1 < Via: 1.1 vegur\n1 < Cache-Control: max-age=14400\n1 < CF-Cache-Status: REVALIDATED\n1 < Vary: Accept-Encoding\n1 < Server: cloudflare\n1 < CF-RAY: 82dc3ba6fbc54763-DFW\n{\"page\":1,\"per_page\":6,\"total\":12,\"total_pages\":2,\"data\":[{\"id\":1,\"name\":\"cerulean\",\"year\":2000,\"color\":\"#98B2D1\",\"pantone_value\":\"15-4020\"},{\"id\":2,\"name\":\"fuchsia rose\",\"year\":2001,\"color\":\"#C74375\",\"pantone_value\":\"17-2031\"},{\"id\":3,\"name\":\"true red\",\"year\":2002,\"color\":\"#BF1932\",\"pantone_value\":\"19-1664\"},{\"id\":4,\"name\":\"aqua sky\",\"year\":2003,\"color\":\"#7BC4C4\",\"pantone_value\":\"14-4811\"},{\"id\":5,\"name\":\"tigerlily\",\"year\":2004,\"color\":\"#E2583E\",\"pantone_value\":\"17-1456\"},{\"id\":6,\"name\":\"blue turquoise\",\"year\":2005,\"color\":\"#53B0AE\",\"pantone_value\":\"15-5217\"}],\"support\":{\"url\":\"https:\/\/reqres.in\/#support-heading\",\"text\":\"To keep ReqRes free, contributions towards server costs are appreciated!\"}}\n\n"},{"result":{"nanos":44978,"startTime":1701275403820,"endTime":1701275403820,"millis":0.044978,"status":"passed"},"step":{"line":56,"prefix":"Then","index":2,"text":"status 200"}},{"result":{"nanos":66443430,"startTime":1701275403820,"endTime":1701275403886,"millis":66.44343,"status":"passed"},"step":{"line":57,"prefix":"And","index":3,"text":"print response"},"stepLog":"10:30:03.870 [print] {\n  \"page\": 1,\n  \"per_page\": 6,\n  \"total\": 12,\n  \"total_pages\": 2,\n  \"data\": [\n    {\n      \"id\": 1,\n      \"name\": \"cerulean\",\n      \"year\": 2000,\n      \"color\": \"#98B2D1\",\n      \"pantone_value\": \"15-4020\"\n    },\n    {\n      \"id\": 2,\n      \"name\": \"fuchsia rose\",\n      \"year\": 2001,\n      \"color\": \"#C74375\",\n      \"pantone_value\": \"17-2031\"\n    },\n    {\n      \"id\": 3,\n      \"name\": \"true red\",\n      \"year\": 2002,\n      \"color\": \"#BF1932\",\n      \"pantone_value\": \"19-1664\"\n    },\n    {\n      \"id\": 4,\n      \"name\": \"aqua sky\",\n      \"year\": 2003,\n      \"color\": \"#7BC4C4\",\n      \"pantone_value\": \"14-4811\"\n    },\n    {\n      \"id\": 5,\n      \"name\": \"tigerlily\",\n      \"year\": 2004,\n      \"color\": \"#E2583E\",\n      \"pantone_value\": \"17-1456\"\n    },\n    {\n      \"id\": 6,\n      \"name\": \"blue turquoise\",\n      \"year\": 2005,\n      \"color\": \"#53B0AE\",\n      \"pantone_value\": \"15-5217\"\n    }\n  ],\n  \"support\": {\n    \"url\": \"https:\/\/reqres.in\/#support-heading\",\n    \"text\": \"To keep ReqRes free, contributions towards server costs are appreciated!\"\n  }\n}\n \n"}],"line":53,"description":"","durationMillis":1976.485629,"failed":false,"tags":["getdemo","Test"],"executorName":"main","name":"get a list of resources","startTime":1701275401829,"refId":"[6:53]","endTime":1701275403886,"exampleIndex":-1}],"callDepth":0,"name":"Sample api Test","description":"","resultDate":"2023-11-29 10:30:03 a. m.","durationMillis":1976.485629,"passedCount":1}