{"failedCount":2,"prefixedPath":"classpath:Tests\/GETdemo.feature","packageQualifiedName":"Tests.GETdemo","loopIndex":-1,"relativePath":"Tests\/GETdemo.feature","scenarioResults":[{"sectionIndex":0,"stepResults":[{"result":{"nanos":2950934,"startTime":1701298568598,"endTime":1701298568601,"millis":2.950934,"status":"passed"},"step":{"background":true,"line":5,"prefix":"*","index":0,"text":"url 'https:\/\/reqres.in\/api'"}},{"result":{"nanos":1383556,"startTime":1701298568601,"endTime":1701298568602,"millis":1.383556,"status":"passed"},"step":{"background":true,"line":6,"prefix":"*","index":1,"text":"header Accept = 'application\/json'"}},{"result":{"nanos":888800,"startTime":1701298568603,"endTime":1701298568604,"millis":0.8888,"status":"passed"},"step":{"line":10,"prefix":"Given","index":0,"text":"url 'https:\/\/reqres.in\/api\/users?page=2'"}},{"result":{"nanos":335031687,"startTime":1701298568604,"endTime":1701298568939,"millis":335.031687,"status":"passed"},"step":{"line":11,"prefix":"When","index":1,"text":"method GET"},"stepLog":"16:56:08.611 request:\n1 > GET https:\/\/reqres.in\/api\/users?page=2\n1 > Accept: application\/json\n1 > Host: reqres.in\n1 > Connection: Keep-Alive\n1 > User-Agent: Apache-HttpClient\/4.5.12 (Java\/17.0.9)\n1 > Accept-Encoding: gzip,deflate\n\n\n16:56:08.924 response time in milliseconds: 285\n1 < 200\n1 < Date: Wed, 29 Nov 2023 22:56:08 GMT\n1 < Content-Type: application\/json; charset=utf-8\n1 < Transfer-Encoding: chunked\n1 < Connection: keep-alive\n1 < Report-To: {\"group\":\"heroku-nel\",\"max_age\":3600,\"endpoints\":[{\"url\":\"https:\/\/nel.heroku.com\/reports?ts=1701294494&sid=c4c9725f-1ab0-44d8-820f-430df2718e11&s=sZEF8Sb%2BL44%2FTLhjvipaUP9vrS2A%2BB2xkD1cyOmzsNM%3D\"}]}\n1 < Reporting-Endpoints: heroku-nel=https:\/\/nel.heroku.com\/reports?ts=1701294494&sid=c4c9725f-1ab0-44d8-820f-430df2718e11&s=sZEF8Sb%2BL44%2FTLhjvipaUP9vrS2A%2BB2xkD1cyOmzsNM%3D\n1 < Nel: {\"report_to\":\"heroku-nel\",\"max_age\":3600,\"success_fraction\":0.005,\"failure_fraction\":0.05,\"response_headers\":[\"Via\"]}\n1 < X-Powered-By: Express\n1 < Access-Control-Allow-Origin: *\n1 < Etag: W\/\"406-ut0vzoCuidvyMf8arZpMpJ6ZRDw\"\n1 < Via: 1.1 vegur\n1 < Cache-Control: max-age=14400\n1 < CF-Cache-Status: HIT\n1 < Age: 4074\n1 < Vary: Accept-Encoding\n1 < Server: cloudflare\n1 < CF-RAY: 82de71372c0772fe-DFW\n{\"page\":2,\"per_page\":6,\"total\":12,\"total_pages\":2,\"data\":[{\"id\":7,\"email\":\"michael.lawson@reqres.in\",\"first_name\":\"Michael\",\"last_name\":\"Lawson\",\"avatar\":\"https:\/\/reqres.in\/img\/faces\/7-image.jpg\"},{\"id\":8,\"email\":\"lindsay.ferguson@reqres.in\",\"first_name\":\"Lindsay\",\"last_name\":\"Ferguson\",\"avatar\":\"https:\/\/reqres.in\/img\/faces\/8-image.jpg\"},{\"id\":9,\"email\":\"tobias.funke@reqres.in\",\"first_name\":\"Tobias\",\"last_name\":\"Funke\",\"avatar\":\"https:\/\/reqres.in\/img\/faces\/9-image.jpg\"},{\"id\":10,\"email\":\"byron.fields@reqres.in\",\"first_name\":\"Byron\",\"last_name\":\"Fields\",\"avatar\":\"https:\/\/reqres.in\/img\/faces\/10-image.jpg\"},{\"id\":11,\"email\":\"george.edwards@reqres.in\",\"first_name\":\"George\",\"last_name\":\"Edwards\",\"avatar\":\"https:\/\/reqres.in\/img\/faces\/11-image.jpg\"},{\"id\":12,\"email\":\"rachel.howell@reqres.in\",\"first_name\":\"Rachel\",\"last_name\":\"Howell\",\"avatar\":\"https:\/\/reqres.in\/img\/faces\/12-image.jpg\"}],\"support\":{\"url\":\"https:\/\/reqres.in\/#support-heading\",\"text\":\"To keep ReqRes free, contributions towards server costs are appreciated!\"}}\n\n"},{"result":{"nanos":48889,"startTime":1701298568939,"endTime":1701298568939,"millis":0.048889,"status":"passed"},"step":{"line":12,"prefix":"Then","index":2,"text":"status 200"}},{"result":{"nanos":8308668,"startTime":1701298568939,"endTime":1701298568947,"millis":8.308668,"status":"passed"},"step":{"line":13,"prefix":"And","index":3,"text":"print response"},"stepLog":"16:56:08.947 [print] {\n  \"page\": 2,\n  \"per_page\": 6,\n  \"total\": 12,\n  \"total_pages\": 2,\n  \"data\": [\n    {\n      \"id\": 7,\n      \"email\": \"michael.lawson@reqres.in\",\n      \"first_name\": \"Michael\",\n      \"last_name\": \"Lawson\",\n      \"avatar\": \"https:\/\/reqres.in\/img\/faces\/7-image.jpg\"\n    },\n    {\n      \"id\": 8,\n      \"email\": \"lindsay.ferguson@reqres.in\",\n      \"first_name\": \"Lindsay\",\n      \"last_name\": \"Ferguson\",\n      \"avatar\": \"https:\/\/reqres.in\/img\/faces\/8-image.jpg\"\n    },\n    {\n      \"id\": 9,\n      \"email\": \"tobias.funke@reqres.in\",\n      \"first_name\": \"Tobias\",\n      \"last_name\": \"Funke\",\n      \"avatar\": \"https:\/\/reqres.in\/img\/faces\/9-image.jpg\"\n    },\n    {\n      \"id\": 10,\n      \"email\": \"byron.fields@reqres.in\",\n      \"first_name\": \"Byron\",\n      \"last_name\": \"Fields\",\n      \"avatar\": \"https:\/\/reqres.in\/img\/faces\/10-image.jpg\"\n    },\n    {\n      \"id\": 11,\n      \"email\": \"george.edwards@reqres.in\",\n      \"first_name\": \"George\",\n      \"last_name\": \"Edwards\",\n      \"avatar\": \"https:\/\/reqres.in\/img\/faces\/11-image.jpg\"\n    },\n    {\n      \"id\": 12,\n      \"email\": \"rachel.howell@reqres.in\",\n      \"first_name\": \"Rachel\",\n      \"last_name\": \"Howell\",\n      \"avatar\": \"https:\/\/reqres.in\/img\/faces\/12-image.jpg\"\n    }\n  ],\n  \"support\": {\n    \"url\": \"https:\/\/reqres.in\/#support-heading\",\n    \"text\": \"To keep ReqRes free, contributions towards server costs are appreciated!\"\n  }\n}\n \n"},{"result":{"nanos":5593868,"startTime":1701298568947,"endTime":1701298568953,"millis":5.593868,"status":"passed"},"step":{"line":14,"prefix":"And","index":4,"text":"print responseStatus"},"stepLog":"16:56:08.953 [print] 200 \n"},{"result":{"nanos":4581867,"startTime":1701298568953,"endTime":1701298568958,"millis":4.581867,"status":"passed"},"step":{"line":15,"prefix":"And","index":5,"text":"print responseTime"},"stepLog":"16:56:08.958 [print] 285 \n"},{"result":{"nanos":16020891,"startTime":1701298568958,"endTime":1701298568974,"millis":16.020891,"status":"passed"},"step":{"line":16,"prefix":"And","index":6,"text":"print responseHeaders"},"stepLog":"16:56:08.974 [print] {\n  \"Date\": [\n    \"Wed, 29 Nov 2023 22:56:08 GMT\"\n  ],\n  \"Content-Type\": [\n    \"application\/json; charset=utf-8\"\n  ],\n  \"Transfer-Encoding\": [\n    \"chunked\"\n  ],\n  \"Connection\": [\n    \"keep-alive\"\n  ],\n  \"Report-To\": [\n    \"{\\\"group\\\":\\\"heroku-nel\\\",\\\"max_age\\\":3600,\\\"endpoints\\\":[{\\\"url\\\":\\\"https:\/\/nel.heroku.com\/reports?ts=1701294494&sid=c4c9725f-1ab0-44d8-820f-430df2718e11&s=sZEF8Sb%2BL44%2FTLhjvipaUP9vrS2A%2BB2xkD1cyOmzsNM%3D\\\"}]}\"\n  ],\n  \"Reporting-Endpoints\": [\n    \"heroku-nel=https:\/\/nel.heroku.com\/reports?ts=1701294494&sid=c4c9725f-1ab0-44d8-820f-430df2718e11&s=sZEF8Sb%2BL44%2FTLhjvipaUP9vrS2A%2BB2xkD1cyOmzsNM%3D\"\n  ],\n  \"Nel\": [\n    \"{\\\"report_to\\\":\\\"heroku-nel\\\",\\\"max_age\\\":3600,\\\"success_fraction\\\":0.005,\\\"failure_fraction\\\":0.05,\\\"response_headers\\\":[\\\"Via\\\"]}\"\n  ],\n  \"X-Powered-By\": [\n    \"Express\"\n  ],\n  \"Access-Control-Allow-Origin\": [\n    \"*\"\n  ],\n  \"Etag\": [\n    \"W\/\\\"406-ut0vzoCuidvyMf8arZpMpJ6ZRDw\\\"\"\n  ],\n  \"Via\": [\n    \"1.1 vegur\"\n  ],\n  \"Cache-Control\": [\n    \"max-age=14400\"\n  ],\n  \"CF-Cache-Status\": [\n    \"HIT\"\n  ],\n  \"Age\": [\n    \"4074\"\n  ],\n  \"Vary\": [\n    \"Accept-Encoding\"\n  ],\n  \"Server\": [\n    \"cloudflare\"\n  ],\n  \"CF-RAY\": [\n    \"82de71372c0772fe-DFW\"\n  ],\n  \"Set-Cookie\": [\n  ]\n}\n \n"}],"line":9,"description":"","durationMillis":374.80916,"failed":false,"tags":["getdemo"],"executorName":"main","name":"Test a sample Get API with full URL","startTime":1701298568587,"refId":"[1:9]","endTime":1701298568974,"exampleIndex":-1},{"sectionIndex":1,"stepResults":[{"result":{"nanos":549022,"startTime":1701298569018,"endTime":1701298569019,"millis":0.549022,"status":"passed"},"step":{"background":true,"line":5,"prefix":"*","index":0,"text":"url 'https:\/\/reqres.in\/api'"}},{"result":{"nanos":8141957,"startTime":1701298569019,"endTime":1701298569027,"millis":8.141957,"status":"passed"},"step":{"background":true,"line":6,"prefix":"*","index":1,"text":"header Accept = 'application\/json'"}},{"result":{"nanos":2939201,"startTime":1701298569027,"endTime":1701298569030,"millis":2.939201,"status":"passed"},"step":{"line":20,"prefix":"Given","index":0,"text":"path '\/users?page=2'"}},{"result":{"nanos":219028606,"errorMessage":"http call failed after 217 milliseconds for url: https:\/\/reqres.in\/api\/users%3Fpage=2\njava.net.SocketTimeoutException: Read timed out\nclasspath:Tests\/GETdemo.feature:21","startTime":1701298569030,"endTime":1701298569249,"millis":219.028606,"status":"failed"},"step":{"line":21,"prefix":"When","index":1,"text":"method GET"},"stepLog":"16:56:09.054 request:\n1 > GET https:\/\/reqres.in\/api\/users%3Fpage=2\n1 > Accept: application\/json\n1 > Host: reqres.in\n1 > Connection: Keep-Alive\n1 > User-Agent: Apache-HttpClient\/4.5.12 (Java\/17.0.9)\n1 > Accept-Encoding: gzip,deflate\n\n\n16:56:09.249 java.net.SocketTimeoutException: Read timed out, http call failed after 217 milliseconds for url: https:\/\/reqres.in\/api\/users%3Fpage=2\n16:56:09.250 classpath:Tests\/GETdemo.feature:21\nWhen method GET\nhttp call failed after 217 milliseconds for url: https:\/\/reqres.in\/api\/users%3Fpage=2\njava.net.SocketTimeoutException: Read timed out\nclasspath:Tests\/GETdemo.feature:21\n"},{"result":{"nanos":0,"startTime":1701298569250,"endTime":1701298569250,"millis":0.0,"status":"skipped"},"step":{"line":22,"prefix":"Then","index":2,"text":"status 200"}},{"result":{"nanos":0,"startTime":1701298569250,"endTime":1701298569250,"millis":0.0,"status":"skipped"},"step":{"line":23,"prefix":"And","index":3,"text":"print response"}}],"line":19,"description":"","durationMillis":230.658786,"failed":true,"error":"http call failed after 217 milliseconds for url: https:\/\/reqres.in\/api\/users%3Fpage=2\njava.net.SocketTimeoutException: Read timed out\nclasspath:Tests\/GETdemo.feature:21","tags":["getdemo"],"executorName":"main","name":"Test a sample Get API with a Path","startTime":1701298568991,"refId":"[2:19]","endTime":1701298569250,"exampleIndex":-1},{"sectionIndex":2,"stepResults":[{"result":{"nanos":2426356,"startTime":1701298569282,"endTime":1701298569284,"millis":2.426356,"status":"passed"},"step":{"background":true,"line":5,"prefix":"*","index":0,"text":"url 'https:\/\/reqres.in\/api'"}},{"result":{"nanos":5818756,"startTime":1701298569284,"endTime":1701298569290,"millis":5.818756,"status":"passed"},"step":{"background":true,"line":6,"prefix":"*","index":1,"text":"header Accept = 'application\/json'"}},{"result":{"nanos":1650978,"startTime":1701298569290,"endTime":1701298569292,"millis":1.650978,"status":"passed"},"step":{"line":27,"prefix":"Given","index":0,"text":"path '\/users'"}},{"result":{"nanos":2966090,"startTime":1701298569292,"endTime":1701298569295,"millis":2.96609,"status":"passed"},"step":{"line":28,"prefix":"And","index":1,"text":"param page = 2"}},{"result":{"nanos":232534163,"startTime":1701298569295,"endTime":1701298569528,"millis":232.534163,"status":"passed"},"step":{"line":29,"prefix":"When","index":2,"text":"method GET"},"stepLog":"16:56:09.319 request:\n1 > GET https:\/\/reqres.in\/api\/users?page=2\n1 > Accept: application\/json\n1 > Host: reqres.in\n1 > Connection: Keep-Alive\n1 > User-Agent: Apache-HttpClient\/4.5.12 (Java\/17.0.9)\n1 > Accept-Encoding: gzip,deflate\n\n\n16:56:09.524 response time in milliseconds: 201\n1 < 200\n1 < Date: Wed, 29 Nov 2023 22:56:09 GMT\n1 < Content-Type: application\/json; charset=utf-8\n1 < Transfer-Encoding: chunked\n1 < Connection: keep-alive\n1 < Report-To: {\"group\":\"heroku-nel\",\"max_age\":3600,\"endpoints\":[{\"url\":\"https:\/\/nel.heroku.com\/reports?ts=1701295694&sid=c4c9725f-1ab0-44d8-820f-430df2718e11&s=p59bpO3aU%2FOkaOqu4krbTaZUrW3TPkA4K9r4g8KH2PQ%3D\"}]}\n1 < Reporting-Endpoints: heroku-nel=https:\/\/nel.heroku.com\/reports?ts=1701295694&sid=c4c9725f-1ab0-44d8-820f-430df2718e11&s=p59bpO3aU%2FOkaOqu4krbTaZUrW3TPkA4K9r4g8KH2PQ%3D\n1 < Nel: {\"report_to\":\"heroku-nel\",\"max_age\":3600,\"success_fraction\":0.005,\"failure_fraction\":0.05,\"response_headers\":[\"Via\"]}\n1 < X-Powered-By: Express\n1 < Access-Control-Allow-Origin: *\n1 < Etag: W\/\"406-ut0vzoCuidvyMf8arZpMpJ6ZRDw\"\n1 < Via: 1.1 vegur\n1 < Cache-Control: max-age=14400\n1 < CF-Cache-Status: HIT\n1 < Age: 2875\n1 < Vary: Accept-Encoding\n1 < Server: cloudflare\n1 < CF-RAY: 82de713b7d33e7df-DFW\n{\"page\":2,\"per_page\":6,\"total\":12,\"total_pages\":2,\"data\":[{\"id\":7,\"email\":\"michael.lawson@reqres.in\",\"first_name\":\"Michael\",\"last_name\":\"Lawson\",\"avatar\":\"https:\/\/reqres.in\/img\/faces\/7-image.jpg\"},{\"id\":8,\"email\":\"lindsay.ferguson@reqres.in\",\"first_name\":\"Lindsay\",\"last_name\":\"Ferguson\",\"avatar\":\"https:\/\/reqres.in\/img\/faces\/8-image.jpg\"},{\"id\":9,\"email\":\"tobias.funke@reqres.in\",\"first_name\":\"Tobias\",\"last_name\":\"Funke\",\"avatar\":\"https:\/\/reqres.in\/img\/faces\/9-image.jpg\"},{\"id\":10,\"email\":\"byron.fields@reqres.in\",\"first_name\":\"Byron\",\"last_name\":\"Fields\",\"avatar\":\"https:\/\/reqres.in\/img\/faces\/10-image.jpg\"},{\"id\":11,\"email\":\"george.edwards@reqres.in\",\"first_name\":\"George\",\"last_name\":\"Edwards\",\"avatar\":\"https:\/\/reqres.in\/img\/faces\/11-image.jpg\"},{\"id\":12,\"email\":\"rachel.howell@reqres.in\",\"first_name\":\"Rachel\",\"last_name\":\"Howell\",\"avatar\":\"https:\/\/reqres.in\/img\/faces\/12-image.jpg\"}],\"support\":{\"url\":\"https:\/\/reqres.in\/#support-heading\",\"text\":\"To keep ReqRes free, contributions towards server costs are appreciated!\"}}\n\n"},{"result":{"nanos":24445,"startTime":1701298569528,"endTime":1701298569528,"millis":0.024445,"status":"passed"},"step":{"line":30,"prefix":"Then","index":3,"text":"status 200"}},{"result":{"nanos":3157734,"startTime":1701298569528,"endTime":1701298569531,"millis":3.157734,"status":"passed"},"step":{"line":31,"prefix":"And","index":4,"text":"print response"},"stepLog":"16:56:09.531 [print] {\n  \"page\": 2,\n  \"per_page\": 6,\n  \"total\": 12,\n  \"total_pages\": 2,\n  \"data\": [\n    {\n      \"id\": 7,\n      \"email\": \"michael.lawson@reqres.in\",\n      \"first_name\": \"Michael\",\n      \"last_name\": \"Lawson\",\n      \"avatar\": \"https:\/\/reqres.in\/img\/faces\/7-image.jpg\"\n    },\n    {\n      \"id\": 8,\n      \"email\": \"lindsay.ferguson@reqres.in\",\n      \"first_name\": \"Lindsay\",\n      \"last_name\": \"Ferguson\",\n      \"avatar\": \"https:\/\/reqres.in\/img\/faces\/8-image.jpg\"\n    },\n    {\n      \"id\": 9,\n      \"email\": \"tobias.funke@reqres.in\",\n      \"first_name\": \"Tobias\",\n      \"last_name\": \"Funke\",\n      \"avatar\": \"https:\/\/reqres.in\/img\/faces\/9-image.jpg\"\n    },\n    {\n      \"id\": 10,\n      \"email\": \"byron.fields@reqres.in\",\n      \"first_name\": \"Byron\",\n      \"last_name\": \"Fields\",\n      \"avatar\": \"https:\/\/reqres.in\/img\/faces\/10-image.jpg\"\n    },\n    {\n      \"id\": 11,\n      \"email\": \"george.edwards@reqres.in\",\n      \"first_name\": \"George\",\n      \"last_name\": \"Edwards\",\n      \"avatar\": \"https:\/\/reqres.in\/img\/faces\/11-image.jpg\"\n    },\n    {\n      \"id\": 12,\n      \"email\": \"rachel.howell@reqres.in\",\n      \"first_name\": \"Rachel\",\n      \"last_name\": \"Howell\",\n      \"avatar\": \"https:\/\/reqres.in\/img\/faces\/12-image.jpg\"\n    }\n  ],\n  \"support\": {\n    \"url\": \"https:\/\/reqres.in\/#support-heading\",\n    \"text\": \"To keep ReqRes free, contributions towards server costs are appreciated!\"\n  }\n}\n \n"}],"line":26,"description":"","durationMillis":248.578522,"failed":false,"tags":["getdemo"],"executorName":"main","name":"Test a sample Get API with a Path and parameters","startTime":1701298569268,"refId":"[3:26]","endTime":1701298569531,"exampleIndex":-1},{"sectionIndex":3,"stepResults":[{"result":{"nanos":464445,"startTime":1701298569558,"endTime":1701298569558,"millis":0.464445,"status":"passed"},"step":{"background":true,"line":5,"prefix":"*","index":0,"text":"url 'https:\/\/reqres.in\/api'"}},{"result":{"nanos":531911,"startTime":1701298569559,"endTime":1701298569560,"millis":0.531911,"status":"passed"},"step":{"background":true,"line":6,"prefix":"*","index":1,"text":"header Accept = 'application\/json'"}},{"result":{"nanos":1309245,"startTime":1701298569560,"endTime":1701298569561,"millis":1.309245,"status":"passed"},"step":{"line":35,"prefix":"Given","index":0,"text":"path '\/users'"}},{"result":{"nanos":640934,"startTime":1701298569561,"endTime":1701298569562,"millis":0.640934,"status":"passed"},"step":{"line":36,"prefix":"And","index":1,"text":"param page = 2"}},{"result":{"nanos":197072603,"startTime":1701298569562,"endTime":1701298569759,"millis":197.072603,"status":"passed"},"step":{"line":37,"prefix":"When","index":2,"text":"method GET"},"stepLog":"16:56:09.564 request:\n1 > GET https:\/\/reqres.in\/api\/users?page=2\n1 > Accept: application\/json\n1 > Host: reqres.in\n1 > Connection: Keep-Alive\n1 > User-Agent: Apache-HttpClient\/4.5.12 (Java\/17.0.9)\n1 > Accept-Encoding: gzip,deflate\n\n\n16:56:09.748 response time in milliseconds: 177\n1 < 200\n1 < Date: Wed, 29 Nov 2023 22:56:09 GMT\n1 < Content-Type: application\/json; charset=utf-8\n1 < Transfer-Encoding: chunked\n1 < Connection: keep-alive\n1 < Report-To: {\"group\":\"heroku-nel\",\"max_age\":3600,\"endpoints\":[{\"url\":\"https:\/\/nel.heroku.com\/reports?ts=1701289094&sid=c4c9725f-1ab0-44d8-820f-430df2718e11&s=FOG7R3Rzl7cmmFMuOKV%2Br9Kn3Zwib3qsCi4DlGerf0E%3D\"}]}\n1 < Reporting-Endpoints: heroku-nel=https:\/\/nel.heroku.com\/reports?ts=1701289094&sid=c4c9725f-1ab0-44d8-820f-430df2718e11&s=FOG7R3Rzl7cmmFMuOKV%2Br9Kn3Zwib3qsCi4DlGerf0E%3D\n1 < Nel: {\"report_to\":\"heroku-nel\",\"max_age\":3600,\"success_fraction\":0.005,\"failure_fraction\":0.05,\"response_headers\":[\"Via\"]}\n1 < X-Powered-By: Express\n1 < Access-Control-Allow-Origin: *\n1 < Etag: W\/\"406-ut0vzoCuidvyMf8arZpMpJ6ZRDw\"\n1 < Via: 1.1 vegur\n1 < Cache-Control: max-age=14400\n1 < CF-Cache-Status: HIT\n1 < Age: 2031\n1 < Vary: Accept-Encoding\n1 < Server: cloudflare\n1 < CF-RAY: 82de713cecfb358e-DFW\n{\"page\":2,\"per_page\":6,\"total\":12,\"total_pages\":2,\"data\":[{\"id\":7,\"email\":\"michael.lawson@reqres.in\",\"first_name\":\"Michael\",\"last_name\":\"Lawson\",\"avatar\":\"https:\/\/reqres.in\/img\/faces\/7-image.jpg\"},{\"id\":8,\"email\":\"lindsay.ferguson@reqres.in\",\"first_name\":\"Lindsay\",\"last_name\":\"Ferguson\",\"avatar\":\"https:\/\/reqres.in\/img\/faces\/8-image.jpg\"},{\"id\":9,\"email\":\"tobias.funke@reqres.in\",\"first_name\":\"Tobias\",\"last_name\":\"Funke\",\"avatar\":\"https:\/\/reqres.in\/img\/faces\/9-image.jpg\"},{\"id\":10,\"email\":\"byron.fields@reqres.in\",\"first_name\":\"Byron\",\"last_name\":\"Fields\",\"avatar\":\"https:\/\/reqres.in\/img\/faces\/10-image.jpg\"},{\"id\":11,\"email\":\"george.edwards@reqres.in\",\"first_name\":\"George\",\"last_name\":\"Edwards\",\"avatar\":\"https:\/\/reqres.in\/img\/faces\/11-image.jpg\"},{\"id\":12,\"email\":\"rachel.howell@reqres.in\",\"first_name\":\"Rachel\",\"last_name\":\"Howell\",\"avatar\":\"https:\/\/reqres.in\/img\/faces\/12-image.jpg\"}],\"support\":{\"url\":\"https:\/\/reqres.in\/#support-heading\",\"text\":\"To keep ReqRes free, contributions towards server costs are appreciated!\"}}\n\n"},{"result":{"nanos":25422,"startTime":1701298569759,"endTime":1701298569759,"millis":0.025422,"status":"passed"},"step":{"line":38,"prefix":"Then","index":3,"text":"status 200"}},{"result":{"nanos":7350446,"startTime":1701298569759,"endTime":1701298569766,"millis":7.350446,"status":"passed"},"step":{"line":39,"prefix":"And","index":4,"text":"print response"},"stepLog":"16:56:09.767 [print] {\n  \"page\": 2,\n  \"per_page\": 6,\n  \"total\": 12,\n  \"total_pages\": 2,\n  \"data\": [\n    {\n      \"id\": 7,\n      \"email\": \"michael.lawson@reqres.in\",\n      \"first_name\": \"Michael\",\n      \"last_name\": \"Lawson\",\n      \"avatar\": \"https:\/\/reqres.in\/img\/faces\/7-image.jpg\"\n    },\n    {\n      \"id\": 8,\n      \"email\": \"lindsay.ferguson@reqres.in\",\n      \"first_name\": \"Lindsay\",\n      \"last_name\": \"Ferguson\",\n      \"avatar\": \"https:\/\/reqres.in\/img\/faces\/8-image.jpg\"\n    },\n    {\n      \"id\": 9,\n      \"email\": \"tobias.funke@reqres.in\",\n      \"first_name\": \"Tobias\",\n      \"last_name\": \"Funke\",\n      \"avatar\": \"https:\/\/reqres.in\/img\/faces\/9-image.jpg\"\n    },\n    {\n      \"id\": 10,\n      \"email\": \"byron.fields@reqres.in\",\n      \"first_name\": \"Byron\",\n      \"last_name\": \"Fields\",\n      \"avatar\": \"https:\/\/reqres.in\/img\/faces\/10-image.jpg\"\n    },\n    {\n      \"id\": 11,\n      \"email\": \"george.edwards@reqres.in\",\n      \"first_name\": \"George\",\n      \"last_name\": \"Edwards\",\n      \"avatar\": \"https:\/\/reqres.in\/img\/faces\/11-image.jpg\"\n    },\n    {\n      \"id\": 12,\n      \"email\": \"rachel.howell@reqres.in\",\n      \"first_name\": \"Rachel\",\n      \"last_name\": \"Howell\",\n      \"avatar\": \"https:\/\/reqres.in\/img\/faces\/12-image.jpg\"\n    }\n  ],\n  \"support\": {\n    \"url\": \"https:\/\/reqres.in\/#support-heading\",\n    \"text\": \"To keep ReqRes free, contributions towards server costs are appreciated!\"\n  }\n}\n \n"},{"result":{"nanos":112073392,"startTime":1701298569769,"endTime":1701298569881,"millis":112.073392,"status":"passed"},"step":{"line":40,"prefix":"And","index":5,"text":"match response.data[0].first_name != null"}},{"result":{"nanos":9265912,"startTime":1701298569882,"endTime":1701298569891,"millis":9.265912,"status":"passed"},"step":{"line":41,"prefix":"And","index":6,"text":"assert response.data.length == 6"}},{"result":{"nanos":12309246,"startTime":1701298569891,"endTime":1701298569903,"millis":12.309246,"status":"passed"},"step":{"line":42,"prefix":"And","index":7,"text":"match $.data[1].id == 8"}},{"result":{"nanos":9490801,"startTime":1701298569903,"endTime":1701298569912,"millis":9.490801,"status":"passed"},"step":{"line":43,"prefix":"And","index":8,"text":"match $.data[3].last_name == 'Fields'"}}],"line":34,"description":"","durationMillis":350.534357,"failed":false,"tags":["getdemo"],"executorName":"main","name":"Test a sample Get API with assertions","startTime":1701298569554,"refId":"[4:34]","endTime":1701298569913,"exampleIndex":-1},{"sectionIndex":4,"stepResults":[{"result":{"nanos":1617245,"startTime":1701298569989,"endTime":1701298569991,"millis":1.617245,"status":"passed"},"step":{"background":true,"line":5,"prefix":"*","index":0,"text":"url 'https:\/\/reqres.in\/api'"}},{"result":{"nanos":12659779,"startTime":1701298569992,"endTime":1701298570005,"millis":12.659779,"status":"passed"},"step":{"background":true,"line":6,"prefix":"*","index":1,"text":"header Accept = 'application\/json'"}},{"result":{"nanos":2889333,"startTime":1701298570004,"endTime":1701298570007,"millis":2.889333,"status":"passed"},"step":{"line":46,"prefix":"Given","index":0,"text":"def userNumber = '\/2'"}},{"result":{"nanos":1476933,"startTime":1701298570007,"endTime":1701298570008,"millis":1.476933,"status":"passed"},"step":{"line":47,"prefix":"Given","index":1,"text":"path '\/users'+userNumber"}},{"result":{"nanos":237218208,"startTime":1701298570009,"endTime":1701298570246,"millis":237.218208,"status":"passed"},"step":{"line":48,"prefix":"When","index":2,"text":"method GET"},"stepLog":"16:56:10.025 request:\n1 > GET https:\/\/reqres.in\/api\/users\/2\n1 > Accept: application\/json\n1 > Host: reqres.in\n1 > Connection: Keep-Alive\n1 > User-Agent: Apache-HttpClient\/4.5.12 (Java\/17.0.9)\n1 > Accept-Encoding: gzip,deflate\n\n\n16:56:10.235 response time in milliseconds: 208\n1 < 200\n1 < Date: Wed, 29 Nov 2023 22:56:10 GMT\n1 < Content-Type: application\/json; charset=utf-8\n1 < Transfer-Encoding: chunked\n1 < Connection: keep-alive\n1 < Report-To: {\"group\":\"heroku-nel\",\"max_age\":3600,\"endpoints\":[{\"url\":\"https:\/\/nel.heroku.com\/reports?ts=1701255032&sid=c4c9725f-1ab0-44d8-820f-430df2718e11&s=xwkjDir24uy3yLV1dh9iNgXLOI20T8dUTw6QFrRc8U0%3D\"}]}\n1 < Reporting-Endpoints: heroku-nel=https:\/\/nel.heroku.com\/reports?ts=1701255032&sid=c4c9725f-1ab0-44d8-820f-430df2718e11&s=xwkjDir24uy3yLV1dh9iNgXLOI20T8dUTw6QFrRc8U0%3D\n1 < Nel: {\"report_to\":\"heroku-nel\",\"max_age\":3600,\"success_fraction\":0.005,\"failure_fraction\":0.05,\"response_headers\":[\"Via\"]}\n1 < X-Powered-By: Express\n1 < Access-Control-Allow-Origin: *\n1 < Etag: W\/\"118-pbdwwFo9SKNhD3Lx5iHJyngpq00\"\n1 < Via: 1.1 vegur\n1 < Cache-Control: max-age=14400\n1 < CF-Cache-Status: HIT\n1 < Age: 6039\n1 < Vary: Accept-Encoding\n1 < Server: cloudflare\n1 < CF-RAY: 82de713fd90f4870-DFW\n{\"data\":{\"id\":2,\"email\":\"janet.weaver@reqres.in\",\"first_name\":\"Janet\",\"last_name\":\"Weaver\",\"avatar\":\"https:\/\/reqres.in\/img\/faces\/2-image.jpg\"},\"support\":{\"url\":\"https:\/\/reqres.in\/#support-heading\",\"text\":\"To keep ReqRes free, contributions towards server costs are appreciated!\"}}\n\n"},{"result":{"nanos":26889,"startTime":1701298570246,"endTime":1701298570246,"millis":0.026889,"status":"passed"},"step":{"line":49,"prefix":"Then","index":3,"text":"status 200"}},{"result":{"nanos":1467156,"startTime":1701298570247,"endTime":1701298570248,"millis":1.467156,"status":"passed"},"step":{"line":50,"prefix":"And","index":4,"text":"print response"},"stepLog":"16:56:10.248 [print] {\n  \"data\": {\n    \"id\": 2,\n    \"email\": \"janet.weaver@reqres.in\",\n    \"first_name\": \"Janet\",\n    \"last_name\": \"Weaver\",\n    \"avatar\": \"https:\/\/reqres.in\/img\/faces\/2-image.jpg\"\n  },\n  \"support\": {\n    \"url\": \"https:\/\/reqres.in\/#support-heading\",\n    \"text\": \"To keep ReqRes free, contributions towards server costs are appreciated!\"\n  }\n}\n \n"}],"line":45,"description":"","durationMillis":257.355543,"failed":false,"tags":["getdemo"],"executorName":"main","name":"get a single user info","startTime":1701298569986,"refId":"[5:45]","endTime":1701298570248,"exampleIndex":-1},{"sectionIndex":5,"stepResults":[{"result":{"nanos":1985378,"startTime":1701298570282,"endTime":1701298570284,"millis":1.985378,"status":"passed"},"step":{"background":true,"line":5,"prefix":"*","index":0,"text":"url 'https:\/\/reqres.in\/api'"}},{"result":{"nanos":349555,"startTime":1701298570284,"endTime":1701298570284,"millis":0.349555,"status":"passed"},"step":{"background":true,"line":6,"prefix":"*","index":1,"text":"header Accept = 'application\/json'"}},{"result":{"nanos":752889,"startTime":1701298570284,"endTime":1701298570285,"millis":0.752889,"status":"passed"},"step":{"line":53,"prefix":"Given","index":0,"text":"path '\/unknown\/2'"}},{"result":{"nanos":222253317,"errorMessage":"http call failed after 221 milliseconds for url: https:\/\/reqres.in\/api\/unknown\/2\njava.net.SocketTimeoutException: Read timed out\nclasspath:Tests\/GETdemo.feature:54","startTime":1701298570285,"endTime":1701298570507,"millis":222.253317,"status":"failed"},"step":{"line":54,"prefix":"When","index":1,"text":"method GET"},"stepLog":"16:56:10.309 request:\n1 > GET https:\/\/reqres.in\/api\/unknown\/2\n1 > Accept: application\/json\n1 > Host: reqres.in\n1 > Connection: Keep-Alive\n1 > User-Agent: Apache-HttpClient\/4.5.12 (Java\/17.0.9)\n1 > Accept-Encoding: gzip,deflate\n\n\n16:56:10.507 java.net.SocketTimeoutException: Read timed out, http call failed after 221 milliseconds for url: https:\/\/reqres.in\/api\/unknown\/2\n16:56:10.508 classpath:Tests\/GETdemo.feature:54\nWhen method GET\nhttp call failed after 221 milliseconds for url: https:\/\/reqres.in\/api\/unknown\/2\njava.net.SocketTimeoutException: Read timed out\nclasspath:Tests\/GETdemo.feature:54\n"},{"result":{"nanos":0,"startTime":1701298570508,"endTime":1701298570508,"millis":0.0,"status":"skipped"},"step":{"line":55,"prefix":"Then","index":2,"text":"status 200"}},{"result":{"nanos":0,"startTime":1701298570508,"endTime":1701298570508,"millis":0.0,"status":"skipped"},"step":{"line":56,"prefix":"And","index":3,"text":"print response"}}],"line":52,"description":"","durationMillis":225.341139,"failed":true,"error":"http call failed after 221 milliseconds for url: https:\/\/reqres.in\/api\/unknown\/2\njava.net.SocketTimeoutException: Read timed out\nclasspath:Tests\/GETdemo.feature:54","tags":["getdemo"],"executorName":"main","name":"get a list of resources","startTime":1701298570279,"refId":"[6:52]","endTime":1701298570508,"exampleIndex":-1}],"callDepth":0,"name":"Sample api Test","description":"","resultDate":"2023-11-29 04:56:10 p. m.","durationMillis":1687.277507,"passedCount":4}